[gd_scene load_steps=3 format=2]

[ext_resource path="res://Source/Node/Player.cs" type="Script" id=1]
[ext_resource path="res://Scenes/Instantiated/Entity/Avatar/Avatar.tscn" type="PackedScene" id=2]

[node name="Player" type="Node"]

script = ExtResource( 1 )

[node name="Avatar" parent="." index="0" instance=ExtResource( 2 )]


