[gd_scene load_steps=2 format=2]

[ext_resource path="res://Scenes/Tiles/Grass.res" type="TileSet" id=1]

[node name="Wall" type="TileMap"]

position = Vector2( 0, 10 )
mode = 0
tile_set = ExtResource( 1 )
cell_size = Vector2( 16, 16 )
cell_quadrant_size = 16
cell_custom_transform = Transform2D( 1, 0, 0, 1, 0, 0 )
cell_half_offset = 2
cell_tile_origin = 0
cell_y_sort = false
cell_clip_uv = false
collision_use_kinematic = false
collision_friction = 1.0
collision_bounce = 0.0
collision_layer = 1
collision_mask = 1
occluder_light_mask = 1
format = 1
tile_data = PoolIntArray( 131071, 0, 1, 65536, 0, 1, 65537, 0, 1, 65538, 0, 1, 131074, 0, 1, 131075, 0, 1 )
_sections_unfolded = [ "Material", "Transform", "Visibility" ]


